Project 1: Exploratory Data Analysis
…
untidy <- selectedarrest %>% pivot_wider(names_from = "assault_incidence", 
    values_from = "Assault")
tidy <- untidy %>% pivot_longer(cols = c("High", "Low"), names_to = "assault_incidence", 
    values_to = "Assault")
tidy

## # A tibble: 100 x 13
##    State Murder.x `Urban Pop`  Rape Population Income Illiteracy `Life Exp`
##    <fct>    <dbl>       <dbl> <dbl>      <dbl>  <dbl>      <dbl>      <dbl>
##  1 Alab…     13.2          58  21.2       3615   3624        2.1       69.0
##  2 Alab…     13.2          58  21.2       3615   3624        2.1       69.0
##  3 Alas…     10            48  44.5        365   6315        1.5       69.3
##  4 Alas…     10            48  44.5        365   6315        1.5       69.3
##  5 Ariz…      8.1          80  31         2212   4530        1.8       70.6
##  6 Ariz…      8.1          80  31         2212   4530        1.8       70.6
##  7 Arka…      8.8          50  19.5       2110   3378        1.9       70.7
##  8 Arka…      8.8          50  19.5       2110   3378        1.9       70.7
##  9 Cali…      9            91  40.6      21198   5114        1.1       71.7
## 10 Cali…      9            91  40.6      21198   5114        1.1       71.7
## # … with 90 more rows, and 5 more variables: `HS Grad` <dbl>, Frost <dbl>,
## #   Area <dbl>, assault_incidence <chr>, Assault <dbl>
…
##   mean_Income sd_Income variance count_Income quantile min_Income max_Income
## 1      4435.8  614.4699 377573.3           50   4435.8       3098       6315
##   distinct_Income       cor
## 1              50 -0.215205

selectedarrest %>% group_by(assault_incidence) %>% summarize(mean_murder = mean(Murder.x), 
    sd_murder = sd(Murder.x), min_murder = min(Murder.x), max_murder = max(Murder.x), 
    variance = var(Murder.x, y = NULL, na.rm = FALSE))

## # A tibble: 2 x 6
##   assault_incidence mean_murder sd_murder min_murder max_murder variance
##   <chr>                   <dbl>     <dbl>      <dbl>      <dbl>    <dbl>
## 1 High                    11.4       3.37        3.4       17.4    11.3 
## 2 Low                      4.74      2.28        0.8        9.7     5.19

The datasets moddata1 and moddata2 whos the six dply functions (filter, select, arrange, group_by, mutate, summarize).
Mutate was used to fine the proportion of Rape and Urban population.

Visualizing

selectedarrest

##         State Murder.x Assault Urban Pop Rape Population Income Illiteracy
## 1     Alabama     13.2     236        58 21.2       3615   3624        2.1
## 2      Alaska     10.0     263        48 44.5        365   6315        1.5
## 3     Arizona      8.1     294        80 31.0       2212   4530        1.8
## 4    Arkansas      8.8     190        50 19.5       2110   3378        1.9
## 5  California      9.0     276        91 40.6      21198   5114        1.1
## 6    Colorado      7.9     204        78 38.7       2541   4884        0.7
## 7 Connecticut      3.3     110        77 11.1       3100   5348        1.1
##   Life Exp HS Grad Frost   Area assault_incidence
## 1    69.05    41.3    20  50708              High
## 2    69.31    66.7   152 566432              High
## 3    70.55    58.1    15 113417              High
## 4    70.66    39.9    65  51945              High
## 5    71.71    62.6    20 156361              High
## 6    72.06    63.9   166 103766              High
## 7    72.48    56.0   139   4862               Low
##  [ reached 'max' / getOption("max.print") -- omitted 43 rows ]
…
